Assigning Pseudonyms in R with the babynames package
…
From here, you can choose a pseudonym that you feel is approrpriate for that person. Unfortunately, because race and ethnicity data are not included here, if your speaker is part of a minority group these names might not be the most approrpiate or reflective of their identity since white Americans dominate this dataset. In such cases, you might set n to a larger number and scan through to find a name more approrpriate for your speaker if you want.

Filtering out existing pseudonyms

Okay, so this works really well, I think, for when you want to find a single pseudonym. However, a lot of us have studies that include multiple people, perhaps a couple dozen. Large projects have hundreds of names. Well get to how to automate this process later, but the first thing we want to watch out for is duplicate names. Michael has been one of the most common male names for decades. If we just went with what the most common names were during our participants years of birth, wed end up with a whole bunch of Michaels.

What we need to do is display the most names that were common for that yearexcept for the ones that weve already used. Its probably not a good idea to use the same pseudonym within a project. I dont even like repeating names across projects. So if Michael was used for a speaker in my very first project, Ill never use that name again. Because Ive recorded a lot of nineties babies, my latest batch of interviewees are getting some unusual names (FOOTNOTE: They were from Utah anyway, so it strangely fits.), so Ive resorted to using alternative forms, like Mike, which I resisted initially, but have come to accept.

Anyway, all this is to say that youll need a way to keep track of what names youve used. Probably the most straightforward way to do this is to use whatever metadata spreadsheet you have for your project. Once youve chosen a name for one person, save it to your spreadsheet. When you want to choose a name for someone else, reread the spreadsheet again, pull out the pseudonym column, and exclude names that are in that list. Heres a sample metadata spreadsheet Ive created:

used_names <- read_csv("sample_metadata.csv") %>%
    print()

## # A tibble: 100 x 3
##    name      sex     yob
##    <chr>     <chr> <dbl>
##  1 Stephen   M      1992
##  2 Brandon   M      1997
##  3 Taylor    F      1997
##  4 Zachary   M      1996
##  5 Sara      F      1992
##  6 Emily     F      1992
##  7 Samantha  F      1993
##  8 William   M      1998
##  9 John      M      1990
## 10 Christina F      1992
## #  with 90 more rows
…
Now, Im a fan of using functions to iterate through things in R and Ive done it many times(SIDENOTE: I tried using purrr for this, but just couldnt get it figured out and it wasnt worth the effort for this post.). In general, for loops are ignored (and even frowned upon) in R code because theyre supposedly slow. But, Hadley Wickham has said that they are not slow, and since Ive already allocated memory space for the names to go (the new name column in my to_be_named data frame), it shouldnt be too bad. Furthermore, he said that loops are the only solution when one iteration depends on the values in some other row, which is the case here.

So, Ill write a for loop that assigns a new name for every row of my 100-row dataframe of generated data. The first two arguments of assign_nym are the same as weve seen before (Ive added the argument names just to be clear what Im doing). But the third one is where I make sure it doesnt assign two names twice. Ive included the argument ignore = to_be_named$name[1:i] because thats the list of names that have already been assigned in this loop. When that gets sent to assign_nym, it becomes the ignore argument (replacing the default "Joey"), and then when the function is filtering out names, itll make sure not to let those go through.

for (i in 1:nrow(to_be_named)) {
    to_be_named$name[[i]] <- assign_nym(yob    = to_be_named$yob[[i]], 
                                        sx     = to_be_named$sex[[i]], 
                                        ignore = to_be_named$name[1:i])
}

The result is that to_be_named now has the name column populated with new, unique pseudonyms that are appropriate for their age and sex.

to_be_named

## # A tibble: 100 x 3
##      yob sex   name  
##    <int> <chr> <chr> 
##  1  1997 F     Sydney
##  2  1991 M     Travis
##  3  1995 F     Brooke
##  4  1995 M     Jesse 
##  5  1994 F     Andrea
##  6  2000 M     Noah  
##  7  1991 F     Erica 
##  8  1998 M     Hunter
##  9  1990 F     Amy   
## 10  1994 M     Alex  
## #  with 90 more rows
…
        rowid_to_column("rank") %>%
        filter(!name %in% used_names$name,
               !name %in% ignored_names, 
               !name %in% ignore) %>% 
        pull(name) %>%
        first()
}
for (i in 1:nrow(to_be_named)) {
    to_be_named$name[[i]] <- assign_nym(to_be_named$yob[[i]], 
                                        to_be_named$sex[[i]], 
                                        to_be_named$name[1:i])
}
to_be_named

## # A tibble: 100 x 3
##      yob sex   name   
##    <int> <chr> <chr>  
##  1  1997 F     Emma   
##  2  1991 M     Jeffrey
##  3  1995 F     Sydney 
##  4  1995 M     Alex   
##  5  1994 F     Marissa
##  6  2000 M     Hunter 
##  7  1991 F     Andrea 
##  8  1998 M     Noah   
##  9  1990 F     Erica  
## 10  1994 M     Jesse  
## #  with 90 more rows
…
